%!PS-Adobe-3.0 EPSF-3.0
%%Creator: MATLAB, The MathWorks, Inc. Version 8.1.0.604 (R2013a). Operating System: Darwin 13.3.0 Darwin Kernel Version 13.3.0: Tue Jun  3 21:27:35 PDT 2014; root:xnu-2422.110.17~1/RELEASE_X86_64 x86_64.
%%Title: /Users/vsu/Dropbox/SandoLogScripts/matlab/scripts-for-field-study-paper/code-search-query-terms.eps
%%CreationDate: 11/19/2014  22:39:47
%%DocumentNeededFonts: Helvetica
%%DocumentProcessColors: Cyan Magenta Yellow Black
%%LanguageLevel: 2
%%Pages: 1
%%BoundingBox:    72   285   539   508
%%EndComments

%%BeginProlog
% MathWorks dictionary
/MathWorks 160 dict begin
% definition operators
/bdef {bind def} bind def
/ldef {load def} bind def
/xdef {exch def} bdef
/xstore {exch store} bdef
% operator abbreviations
/c  /clip ldef
/cc /concat ldef
/cp /closepath ldef
/gr /grestore ldef
/gs /gsave ldef
/mt /moveto ldef
/np /newpath ldef
/cm /currentmatrix ldef
/sm /setmatrix ldef
/rm /rmoveto ldef
/rl /rlineto ldef
/s {show newpath} bdef
/sc {setcmykcolor} bdef
/sr /setrgbcolor ldef
/sg /setgray ldef
/w /setlinewidth ldef
/j /setlinejoin ldef
/cap /setlinecap ldef
/rc {rectclip} bdef
/rf {rectfill} bdef
% page state control
/pgsv () def
/bpage {/pgsv save def} bdef
/epage {pgsv restore} bdef
/bplot /gsave ldef
/eplot {stroke grestore} bdef
% orientation switch
/portraitMode 0 def /landscapeMode 1 def /rotateMode 2 def
% coordinate system mappings
/dpi2point 0 def
% font control
/FontSize 0 def
/FMS {/FontSize xstore findfont [FontSize 0 0 FontSize neg 0 0]
  makefont setfont} bdef
/reencode {exch dup where {pop load} {pop StandardEncoding} ifelse
  exch dup 3 1 roll findfont dup length dict begin
  { 1 index /FID ne {def}{pop pop} ifelse } forall
  /Encoding exch def currentdict end definefont pop} bdef
/isroman {findfont /CharStrings get /Agrave known} bdef
/FMSR {3 1 roll 1 index dup isroman {reencode} {pop pop} ifelse
  exch FMS} bdef
/csm {1 dpi2point div -1 dpi2point div scale neg translate
 dup landscapeMode eq {pop -90 rotate}
  {rotateMode eq {90 rotate} if} ifelse} bdef
% line types: solid, dotted, dashed, dotdash
/SO { [] 0 setdash } bdef
/DO { [.5 dpi2point mul 4 dpi2point mul] 0 setdash } bdef
/DA { [6 dpi2point mul] 0 setdash } bdef
/DD { [.5 dpi2point mul 4 dpi2point mul 6 dpi2point mul 4
  dpi2point mul] 0 setdash } bdef
% macros for lines and objects
/L {lineto stroke} bdef
/MP {3 1 roll moveto 1 sub {rlineto} repeat} bdef
/AP {{rlineto} repeat} bdef
/PDlw -1 def
/W {/PDlw currentlinewidth def setlinewidth} def
/PP {closepath eofill} bdef
/DP {closepath stroke} bdef
/MR {4 -2 roll moveto dup  0 exch rlineto exch 0 rlineto
  neg 0 exch rlineto closepath} bdef
/FR {MR stroke} bdef
/PR {MR fill} bdef
/L1i {{currentfile picstr readhexstring pop} image} bdef
/tMatrix matrix def
/MakeOval {newpath tMatrix currentmatrix pop translate scale
0 0 1 0 360 arc tMatrix setmatrix} bdef
/FO {MakeOval stroke} bdef
/PO {MakeOval fill} bdef
/PD {currentlinewidth 2 div 0 360 arc fill
   PDlw -1 eq not {PDlw w /PDlw -1 def} if} def
/FA {newpath tMatrix currentmatrix pop translate scale
  0 0 1 5 -2 roll arc tMatrix setmatrix stroke} bdef
/PA {newpath tMatrix currentmatrix pop	translate 0 0 moveto scale
  0 0 1 5 -2 roll arc closepath tMatrix setmatrix fill} bdef
/FAn {newpath tMatrix currentmatrix pop translate scale
  0 0 1 5 -2 roll arcn tMatrix setmatrix stroke} bdef
/PAn {newpath tMatrix currentmatrix pop translate 0 0 moveto scale
  0 0 1 5 -2 roll arcn closepath tMatrix setmatrix fill} bdef
/vradius 0 def /hradius 0 def /lry 0 def
/lrx 0 def /uly 0 def /ulx 0 def /rad 0 def
/MRR {/vradius xdef /hradius xdef /lry xdef /lrx xdef /uly xdef
  /ulx xdef newpath tMatrix currentmatrix pop ulx hradius add uly
  vradius add translate hradius vradius scale 0 0 1 180 270 arc 
  tMatrix setmatrix lrx hradius sub uly vradius add translate
  hradius vradius scale 0 0 1 270 360 arc tMatrix setmatrix
  lrx hradius sub lry vradius sub translate hradius vradius scale
  0 0 1 0 90 arc tMatrix setmatrix ulx hradius add lry vradius sub
  translate hradius vradius scale 0 0 1 90 180 arc tMatrix setmatrix
  closepath} bdef
/FRR {MRR stroke } bdef
/PRR {MRR fill } bdef
/MlrRR {/lry xdef /lrx xdef /uly xdef /ulx xdef /rad lry uly sub 2 div def
  newpath tMatrix currentmatrix pop ulx rad add uly rad add translate
  rad rad scale 0 0 1 90 270 arc tMatrix setmatrix lrx rad sub lry rad
  sub translate rad rad scale 0 0 1 270 90 arc tMatrix setmatrix
  closepath} bdef
/FlrRR {MlrRR stroke } bdef
/PlrRR {MlrRR fill } bdef
/MtbRR {/lry xdef /lrx xdef /uly xdef /ulx xdef /rad lrx ulx sub 2 div def
  newpath tMatrix currentmatrix pop ulx rad add uly rad add translate
  rad rad scale 0 0 1 180 360 arc tMatrix setmatrix lrx rad sub lry rad
  sub translate rad rad scale 0 0 1 0 180 arc tMatrix setmatrix
  closepath} bdef
/FtbRR {MtbRR stroke } bdef
/PtbRR {MtbRR fill } bdef
/stri 6 array def /dtri 6 array def
/smat 6 array def /dmat 6 array def
/tmat1 6 array def /tmat2 6 array def /dif 3 array def
/asub {/ind2 exch def /ind1 exch def dup dup
  ind1 get exch ind2 get sub exch } bdef
/tri_to_matrix {
  2 0 asub 3 1 asub 4 0 asub 5 1 asub
  dup 0 get exch 1 get 7 -1 roll astore } bdef
/compute_transform {
  dmat dtri tri_to_matrix tmat1 invertmatrix 
  smat stri tri_to_matrix tmat2 concatmatrix } bdef
/ds {stri astore pop} bdef
/dt {dtri astore pop} bdef
/db {2 copy /cols xdef /rows xdef mul dup 3 mul string
  currentfile 
  3 index 0 eq {/ASCIIHexDecode filter}
  {/ASCII85Decode filter 3 index 2 eq {/RunLengthDecode filter} if }
  ifelse exch readstring pop
  dup 0 3 index getinterval /rbmap xdef
  dup 2 index dup getinterval /gbmap xdef
  1 index dup 2 mul exch getinterval /bbmap xdef pop pop}bdef
/it {gs np dtri aload pop moveto lineto lineto cp c
  cols rows 8 compute_transform 
  rbmap gbmap bbmap true 3 colorimage gr}bdef
/il {newpath moveto lineto stroke}bdef
currentdict end def
%%EndProlog

%%BeginSetup
MathWorks begin

0 cap

end
%%EndSetup

%%Page: 1 1
%%BeginPageSetup
%%PageBoundingBox:    72   285   539   508
MathWorks begin
bpage
%%EndPageSetup

%%BeginObject: obj1
bplot

/dpi2point 12 def
portraitMode 0864 6096 csm

    0     0  5604  2675 rc
85 dict begin %Colortable dictionary
/c0 { 0.000000 0.000000 0.000000 sr} bdef
/c1 { 1.000000 1.000000 1.000000 sr} bdef
/c2 { 0.900000 0.000000 0.000000 sr} bdef
/c3 { 0.000000 0.820000 0.000000 sr} bdef
/c4 { 0.000000 0.000000 0.800000 sr} bdef
/c5 { 0.910000 0.820000 0.320000 sr} bdef
/c6 { 1.000000 0.260000 0.820000 sr} bdef
/c7 { 0.000000 0.820000 0.820000 sr} bdef
c0
1 j
1 sg
   0    0 5605 2676 rf
6 w
0 2157 1875 0 0 -2157 729 2358 4 MP
PP
-1875 0 0 2157 1875 0 0 -2157 729 2358 5 MP stroke
4 w
DO
SO
6 w
0 sg
 729 2358 mt 2604 2358 L
 729  201 mt 2604  201 L
 729 2358 mt  729  201 L
2604 2358 mt 2604  201 L
 729 2358 mt 2604 2358 L
 729 2358 mt  729  201 L
 885 2358 mt  885 2336 L
 885  201 mt  885  222 L
%%IncludeResource: font Helvetica
/Helvetica /ISOLatin1Encoding 120 FMSR

 852 2503 mt 
(1) s
1197 2358 mt 1197 2336 L
1197  201 mt 1197  222 L
1164 2503 mt 
(2) s
1510 2358 mt 1510 2336 L
1510  201 mt 1510  222 L
1477 2503 mt 
(3) s
1822 2358 mt 1822 2336 L
1822  201 mt 1822  222 L
1789 2503 mt 
(4) s
2135 2358 mt 2135 2336 L
2135  201 mt 2135  222 L
2102 2503 mt 
(5) s
2447 2358 mt 2447 2336 L
2447  201 mt 2447  222 L
2414 2503 mt 
(6) s
 729 2358 mt  750 2358 L
2604 2358 mt 2582 2358 L
 628 2402 mt 
(0) s
 729 2088 mt  750 2088 L
2604 2088 mt 2582 2088 L
 428 2132 mt 
(1000) s
 729 1818 mt  750 1818 L
2604 1818 mt 2582 1818 L
 428 1862 mt 
(2000) s
 729 1549 mt  750 1549 L
2604 1549 mt 2582 1549 L
 428 1593 mt 
(3000) s
 729 1279 mt  750 1279 L
2604 1279 mt 2582 1279 L
 428 1323 mt 
(4000) s
 729 1009 mt  750 1009 L
2604 1009 mt 2582 1009 L
 428 1053 mt 
(5000) s
 729  740 mt  750  740 L
2604  740 mt 2582  740 L
 428  784 mt 
(6000) s
 729  470 mt  750  470 L
2604  470 mt 2582  470 L
 428  514 mt 
(7000) s
 729  201 mt  750  201 L
2604  201 mt 2582  201 L
 428  245 mt 
(8000) s
 729 2358 mt 2604 2358 L
 729  201 mt 2604  201 L
 729 2358 mt  729  201 L
2604 2358 mt 2604  201 L
gs 729 201 1876 2158 rc
/c8 { 0.000000 0.000000 0.562500 sr} bdef
c8
0 1682 250 0 0 -1682 760 2358 4 MP
PP
0 sg
-250 0 0 1682 250 0 0 -1682 760 2358 5 MP stroke
c8
0 341 250 0 0 -341 1072 2358 4 MP
PP
0 sg
-250 0 0 341 250 0 0 -341 1072 2358 5 MP stroke
c8
0 93 250 0 0 -93 1385 2358 4 MP
PP
0 sg
-250 0 0 93 250 0 0 -93 1385 2358 5 MP stroke
c8
0 34 250 0 0 -34 1697 2358 4 MP
PP
0 sg
-250 0 0 34 250 0 0 -34 1697 2358 5 MP stroke
c8
0 13 250 0 0 -13 2010 2358 4 MP
PP
0 sg
-250 0 0 13 250 0 0 -13 2010 2358 5 MP stroke
c8
0 6 250 0 0 -6 2322 2358 4 MP
PP
0 sg
-250 0 0 6 250 0 0 -6 2322 2358 5 MP stroke
1875 0 729 2358 2 MP stroke
gr

 346 1764 mt  -90 rotate
(number of queries) s
90 rotate
 995 2646 mt 
(number of terms in query) s
1 sg
0 2157 1876 0 0 -2157 3196 2358 4 MP
PP
-1876 0 0 2157 1876 0 0 -2157 3196 2358 5 MP stroke
4 w
DO
SO
6 w
0 sg
3196 2358 mt 5072 2358 L
3196  201 mt 5072  201 L
3196 2358 mt 3196  201 L
5072 2358 mt 5072  201 L
3196 2358 mt 5072 2358 L
3196 2358 mt 3196  201 L
3383 2358 mt 3383 2336 L
3383  201 mt 3383  222 L
3280 2503 mt 
(-4) s
3571 2358 mt 3571 2336 L
3571  201 mt 3571  222 L
3468 2503 mt 
(-3) s
3758 2358 mt 3758 2336 L
3758  201 mt 3758  222 L
3655 2503 mt 
(-2) s
3946 2358 mt 3946 2336 L
3946  201 mt 3946  222 L
3843 2503 mt 
(-1) s
4134 2358 mt 4134 2336 L
4134  201 mt 4134  222 L
4101 2503 mt 
(0) s
4321 2358 mt 4321 2336 L
4321  201 mt 4321  222 L
4288 2503 mt 
(1) s
4509 2358 mt 4509 2336 L
4509  201 mt 4509  222 L
4476 2503 mt 
(2) s
4696 2358 mt 4696 2336 L
4696  201 mt 4696  222 L
4663 2503 mt 
(3) s
4884 2358 mt 4884 2336 L
4884  201 mt 4884  222 L
4851 2503 mt 
(4) s
3196 2358 mt 3217 2358 L
5072 2358 mt 5050 2358 L
3095 2402 mt 
(0) s
3196 2118 mt 3217 2118 L
5072 2118 mt 5050 2118 L
3028 2162 mt 
(20) s
3196 1878 mt 3217 1878 L
5072 1878 mt 5050 1878 L
3028 1922 mt 
(40) s
3196 1639 mt 3217 1639 L
5072 1639 mt 5050 1639 L
3028 1683 mt 
(60) s
3196 1399 mt 3217 1399 L
5072 1399 mt 5050 1399 L
3028 1443 mt 
(80) s
3196 1159 mt 3217 1159 L
5072 1159 mt 5050 1159 L
2961 1203 mt 
(100) s
3196  920 mt 3217  920 L
5072  920 mt 5050  920 L
2961  964 mt 
(120) s
3196  680 mt 3217  680 L
5072  680 mt 5050  680 L
2961  724 mt 
(140) s
3196  440 mt 3217  440 L
5072  440 mt 5050  440 L
2961  484 mt 
(160) s
3196  201 mt 3217  201 L
5072  201 mt 5050  201 L
2961  245 mt 
(180) s
3196 2358 mt 5072 2358 L
3196  201 mt 5072  201 L
3196 2358 mt 3196  201 L
5072 2358 mt 5072  201 L
gs 3196 201 1877 2158 rc
c8
0 0 150 0 0 0 3308 2358 4 MP
PP
0 sg
-150 0 0 0 150 0 0 0 3308 2358 5 MP stroke
c8
0 24 150 0 0 -24 3496 2358 4 MP
PP
0 sg
-150 0 0 24 150 0 0 -24 3496 2358 5 MP stroke
c8
0 60 150 0 0 -60 3683 2358 4 MP
PP
0 sg
-150 0 0 60 150 0 0 -60 3683 2358 5 MP stroke
c8
0 312 150 0 0 -312 3871 2358 4 MP
PP
0 sg
-150 0 0 312 150 0 0 -312 3871 2358 5 MP stroke
c8
0 1055 151 0 0 -1055 4058 2358 4 MP
PP
0 sg
-151 0 0 1055 151 0 0 -1055 4058 2358 5 MP stroke
c8
0 1894 150 0 0 -1894 4246 2358 4 MP
PP
0 sg
-150 0 0 1894 150 0 0 -1894 4246 2358 5 MP stroke
c8
0 851 150 0 0 -851 4434 2358 4 MP
PP
0 sg
-150 0 0 851 150 0 0 -851 4434 2358 5 MP stroke
c8
0 384 150 0 0 -384 4621 2358 4 MP
PP
0 sg
-150 0 0 384 150 0 0 -384 4621 2358 5 MP stroke
c8
0 144 150 0 0 -144 4809 2358 4 MP
PP
0 sg
-150 0 0 144 150 0 0 -144 4809 2358 5 MP stroke
1876 0 3196 2358 2 MP stroke
gr

3185 2646 mt 
(difference in number of query terms) s
2879 1764 mt  -90 rotate
(number of queries) s
90 rotate

end %%Color Dict

eplot
%%EndObject

epage
end

showpage

%%Trailer
%%EOF
